<svg width="20" height="20" viewBox="0 0 20 20" fill="none" xmlns="http://www.w3.org/2000/svg">
<path fill-rule="evenodd" clip-rule="evenodd" d="M17.5 9.58336C17.5029 10.6832 17.2459 11.7683 16.75 12.75C15.5508 15.1495 13.0991 16.6657 10.4167 16.6667C9.31678 16.6696 8.23176 16.4126 7.25 15.9167L2.5 17.5L4.08333 12.75C3.58744 11.7683 3.33047 10.6832 3.33333 9.58336C3.33437 6.90093 4.85056 4.44922 7.25 3.25002C8.23176 2.75413 9.31678 2.49716 10.4167 2.50002H10.8333C14.4298 2.69844 17.3016 5.57018 17.5 9.16669V9.58336V9.58336Z" stroke="white" stroke-width="2" stroke-linecap="round" stroke-linejoin="round"/>
</svg>
